
<svg width="365px" height="486px" viewBox="-537 -344 365 486" version="1.1" xmlns="http://www.w3.org/2000/svg" xmlns:xlink="http://www.w3.org/1999/xlink">
    <defs></defs>
    <g id="lock-padlock-symbol-for-protect" stroke="none" stroke-width="1" fill="none" fill-rule="evenodd" transform="translate(-537.000000, -344.000000)">
        <g id="Capa_1" fill="#FFFFFF">
            <path d="M303.908,212.282 L303.908,121.304 C303.908,54.434 249.509,0 182.606,0 C115.722,0 61.304,54.434 61.304,121.304 L61.304,212.282 C27.806,212.282 0.651,239.44 0.651,272.93 L0.651,424.559 C0.651,458.059 27.806,485.212 61.304,485.212 L303.908,485.212 C337.399,485.212 364.561,458.059 364.561,424.559 L364.561,272.93 C364.562,239.439 337.399,212.282 303.908,212.282 L303.908,212.282 Z M197.77,359.257 L197.77,409.396 C197.77,417.778 190.989,424.559 182.607,424.559 C174.225,424.559 167.443,417.778 167.443,409.396 L167.443,359.257 C158.543,353.988 152.282,344.687 152.282,333.584 C152.282,316.819 165.861,303.257 182.606,303.257 C199.351,303.257 212.932,316.819 212.932,333.584 C212.933,344.687 206.665,353.989 197.77,359.257 L197.77,359.257 Z M243.255,212.282 L121.955,212.282 L121.955,121.304 C121.955,87.839 149.155,60.651 182.606,60.651 C216.041,60.651 243.254,87.839 243.254,121.304 L243.254,212.282 L243.255,212.282 Z" id="Shape"></path>
        </g>
    </g>
</svg>
